<?xml version="1.0" encoding="utf-8"?>
<!DOCTYPE svg PUBLIC "-//W3C//DTD SVG 1.1//EN" "http://www.w3.org/Graphics/SVG/1.1/DTD/svg11.dtd">
<svg version="1.1" xmlns="http://www.w3.org/2000/svg" xmlns:xlink="http://www.w3.org/1999/xlink" x="0px" y="0px" viewBox="0 0 1000 1000" enable-background="new 0 0 1000 1000" xml:space="preserve">

<g fill="rgba(0,0,0,0.7)" transform="translate(0.000000,511.000000) scale(0.100000,-0.100000)"><path d="M4634.3,469.6L100-4064.8l360.8-358.4l358.4-360.8l958.1,958.1l955.6,955.6H5646c1884.4,0,2966.8,9.8,3069.2,24.4c431.5,70.7,785,424.2,855.7,855.7c31.7,202.4,34.1,4268.6,0,4468.5c-51.2,319.4-265.7,621.6-536.3,758.2l-129.2,65.8l497.3,497.3l497.3,497.3l-353.5,353.5c-195,195-358.4,353.5-365.7,353.5C9173.5,5003.9,7128.2,2963.5,4634.3,469.6z M7142.9,1230.2c99.9-304.7,119.4-463.2,104.8-816.7c-7.3-219.4-29.3-382.7-63.4-514.4C6855.2-1302.7,5628.9-2051.1,4427.1-1783c-180.4,39-438.8,129.2-438.8,153.6c0,7.3,190.1,202.3,419.3,433.9l421.7,421.7h121.9c387.6,0,802,226.7,1021.5,555.8c131.6,197.5,199.9,394.9,221.8,638.7l17.1,182.8l416.9,419.3c229.2,231.6,424.2,414.4,433.9,407.1C7072.1,1425.2,7108.7,1335,7142.9,1230.2z"/><path d="M3739.6,4906.4c-153.6-26.8-370.5-126.8-499.8-234c-65.8-53.6-212.1-246.2-382.7-507.1c-309.6-465.6-429.1-592.4-668-704.5c-160.9-75.6-173.1-78-629-92.6c-402.2-12.2-490-21.9-626.5-70.7c-292.5-102.4-511.9-319.4-626.5-616.8l-60.9-151.1L239,359.9C234.1-917.5,241.4-1870.7,256-1956c12.2-82.9,39-192.6,60.9-243.8l41.4-95.1L1492-1161.3l1136,1136L2598.8,160c-43.9,263.3-19.5,733.8,48.8,967.8c121.9,424.2,331.5,770.4,648.5,1072.6c319.4,302.3,626.5,475.4,1048.3,587.5c256,68.3,692.3,85.3,928.8,39l173.1-34.1l733.8,733.8l733.8,736.2l-121.9,173.1c-68.3,95.1-165.8,209.6-217,248.7c-131.6,104.8-336.4,195-507.1,221.8C5899.6,4935.7,3905.4,4933.2,3739.6,4906.4z"/></g>
</svg>