<svg width="24" height="14" viewBox="0 0 24 14" xmlns="http://www.w3.org/2000/svg">
<path fill-rule="evenodd" clip-rule="evenodd" d="M5.24074 12.9008C5.60017 13.3201 6.23147 13.3687 6.65079 13.0092C7.07012 12.6498 7.11868 12.0185 6.75926 11.5992L3.67422 7.99998L22.5 7.99998C23.0523 7.99998 23.5 7.55227 23.5 6.99998C23.5 6.4477 23.0523 5.99998 22.5 5.99998L3.67422 5.99998L6.75926 2.40077C7.11868 1.98144 7.07012 1.35014 6.65079 0.990722C6.23147 0.6313 5.60017 0.679861 5.24074 1.09919L0.740744 6.34919C0.419753 6.72368 0.419753 7.27628 0.740744 7.65077L5.24074 12.9008Z"/>
</svg>
